<?xml version="1.0" encoding="UTF-8" standalone="no"?>
<!-- Created with Inkscape (http://www.inkscape.org/) -->

<svg
   xmlns:dc="http://purl.org/dc/elements/1.1/"
   xmlns:cc="http://creativecommons.org/ns#"
   xmlns:rdf="http://www.w3.org/1999/02/22-rdf-syntax-ns#"
   xmlns:svg="http://www.w3.org/2000/svg"
   xmlns="http://www.w3.org/2000/svg"
   xmlns:sodipodi="http://sodipodi.sourceforge.net/DTD/sodipodi-0.dtd"
   xmlns:inkscape="http://www.inkscape.org/namespaces/inkscape"
   width="150mm"
   height="150mm"
   viewBox="0 0 150 150"
   version="1.1"
   id="svg8"
   inkscape:version="0.92.4 (5da689c313, 2019-01-14)"
   sodipodi:docname="Q.svg">
  <defs
     id="defs2" />
  <sodipodi:namedview
     id="base"
     pagecolor="#ffffff"
     bordercolor="#666666"
     borderopacity="1.0"
     inkscape:pageopacity="0.0"
     inkscape:pageshadow="2"
     inkscape:zoom="0.7"
     inkscape:cx="112.4297"
     inkscape:cy="296.56802"
     inkscape:document-units="mm"
     inkscape:current-layer="layer1"
     showgrid="true"
     inkscape:window-width="1366"
     inkscape:window-height="744"
     inkscape:window-x="0"
     inkscape:window-y="-5"
     inkscape:window-maximized="1">
    <inkscape:grid
       type="xygrid"
       id="grid870"
       originx="-5.2429029"
       originy="-95.117085" />
  </sodipodi:namedview>
  <metadata
     id="metadata5">
    <rdf:RDF>
      <cc:Work
         rdf:about="">
        <dc:format>image/svg+xml</dc:format>
        <dc:type
           rdf:resource="http://purl.org/dc/dcmitype/StillImage" />
        <dc:title></dc:title>
      </cc:Work>
    </rdf:RDF>
  </metadata>
  <g
     inkscape:label="Layer 1"
     inkscape:groupmode="layer"
     id="layer1"
     transform="translate(-5.2429028,-51.882902)">
     <rect
        id="rect34"
        width="149.73088"
        height="149.73088"
        x="5.3774643"
        y="52.017464"
        fill="{bg_color}"
        style="opacity:1;stroke-width:0" />
    <g>
      <path
         fill="{fg_color}"
         d="m 80.128434,173.39586 q -12.660726,0 -21.82468,-5.48631 -9.163953,-5.48632 -14.047376,-15.67519 -4.823134,-10.18886 -4.823134,-24.05537 0,-13.80622 4.823134,-23.9348 4.883423,-10.188875 14.047376,-15.675189 9.163954,-5.486315 21.82468,-5.486315 12.298991,0 21.221786,5.486315 8.98309,5.486314 13.68564,15.675189 4.76285,10.12858 4.76285,23.9348 0,13.3239 -4.76285,23.57306 -4.76284,10.24916 -13.74593,15.97663 -8.922794,5.66718 -21.161496,5.66718 z m 0,-11.6961 q 26.466946,0 26.466946,-33.52077 0,-10.12858 -3.19533,-17.66473 -3.13503,-7.53615 -9.103661,-11.575522 -5.968628,-4.099663 -14.167955,-4.099663 -8.561062,0 -14.770847,4.099663 -6.149495,4.039372 -9.465399,11.575522 -3.255616,7.47586 -3.255616,17.66473 0,10.24915 3.255616,17.7853 3.315904,7.53615 9.465399,11.63581 6.209785,4.09966 14.770847,4.09966 z m 14.167955,-21.88496 24.597981,25.20087 -8.13904,8.44048 -24.356822,-26.04492 z"
         style="stroke-width:0"
         id="path1439" />
    </g>
  </g>
</svg>
