[
  {"value":"ab", "name":"аҧсуа"},
  {"value":"aa", "name":"Afaraf"},
  {"value":"af", "name":"Afrikaans"},
  {"value":"ak", "name":"Akan"},
  {"value":"sq", "name":"Shqip"},
  {"value":"am", "name":"Amharic"},
  {"value":"ar", "name":"العربية"},
  {"value":"an", "name":"Aragonés"},
  {"value":"hy", "name":"Հայերեն"},
  {"value":"as", "name":"Assamese"},
  {"value":"av", "name":"авар мацӀ"},
  {"value":"ae", "name":"avesta"},
  {"value":"ay", "name":"aymar aru"},
  {"value":"az", "name":"azərbaycan dili"},
  {"value":"bm", "name":"bamanankan"},
  {"value":"ba", "name":"башҡорт теле"},
  {"value":"eu", "name":"Euskara"},
  {"value":"be", "name":"Беларуская"},
  {"value":"bn", "name":"Bengali"},
  {"value":"bh", "name":"Bihariी"},
  {"value":"bi", "name":"Bislama"},
  {"value":"bs", "name":"bosanski jezik"},
  {"value":"br", "name":"brezhoneg"},
  {"value":"bg", "name":"български език"},
  {"value":"my", "name":"Burmese"},
  {"value":"ca", "name":"Català"},
  {"value":"ch", "name":"Chamoru"},
  {"value":"ce", "name":"нохчийн мотт"},
  {"value":"ny", "name":"chiCheŵa"},
  {"value":"zh", "name":"中文 (Zhōngwén), 汉语, 漢語"},
  {"value":"cv", "name":"чӑваш чӗлхи"},
  {"value":"kw", "name":"Kernewek"},
  {"value":"co", "name":"Corsu"},
  {"value":"cr", "name":"ᓀᐦᐃᔭᐍᐏᐣ"},
  {"value":"hr", "name":"Hrvatski"},
  {"value":"cs", "name":"česky"},
  {"value":"da", "name":"Dansk"},
  {"value":"dv", "name":"Divehi"},
  {"value":"nl", "name":"Nederlands"},
  {"value":"en", "name":"English"},
  {"value":"eo", "name":"Esperanto"},
  {"value":"et", "name":"Eesti"},
  {"value":"ee", "name":"Eʋegbe"},
  {"value":"fo", "name":"Føroyskt"},
  {"value":"fj", "name":"Vosa Vakaviti"},
  {"value":"fi", "name":"Suomi"},
  {"value":"fr", "name":"Français"},
  {"value":"ff", "name":"Fulfulde"},
  {"value":"gl", "name":"Galego"},
  {"value":"ka", "name":"ქართული"},
  {"value":"de", "name":"Deutsch"},
  {"value":"el", "name":"Ελληνικά"},
  {"value":"gn", "name":"Avañeẽ"},
  {"value":"gu", "name":"Gujarati"},
  {"value":"ht", "name":"Kreyòl ayisyen"},
  {"value":"ha", "name":"Hausa"},
  {"value":"he", "name":"עברית"},
  {"value":"hz", "name":"Otjiherero"},
  {"value":"hi", "name":"Hindi"},
  {"value":"ho", "name":"Hiri Motu"},
  {"value":"hu", "name":"Magyar"},
  {"value":"ia", "name":"Interlingua"},
  {"value":"id", "name":"Bahasa Indonesia"},
  {"value":"ga", "name":"Gaeilge"},
  {"value":"ig", "name":"Asụsụ Igbo"},
  {"value":"ik", "name":"Iñupiaq"},
  {"value":"io", "name":"Ido"},
  {"value":"is", "name":"Íslenska"},
  {"value":"it", "name":"Italiano"},
  {"value":"iu", "name":"ᐃᓄᒃᑎᑐᑦ"},
  {"value":"ja", "name":"日本語"},
  {"value":"jv", "name":"Basa Jawa"},
  {"value":"kl", "name":"Kalaallisut"},
  {"value":"kn", "name":"Kannada"},
  {"value":"kr", "name":"Kanuri"},
  {"value":"ks", "name":"Kashmiri‎"},
  {"value":"kk", "name":"Қазақ тілі"},
  {"value":"km", "name":"Khmer"},
  {"value":"ki", "name":"Gĩkũyũ"},
  {"value":"rw", "name":"Ikinyarwanda"},
  {"value":"ky", "name":"кыргыз тили"},
  {"value":"kv", "name":"коми кыв"},
  {"value":"kg", "name":"KiKongo"},
  {"value":"ko", "name":"Korean"},
  {"value":"ku", "name":"Kurdî‎"},
  {"value":"kj", "name":"Kuanyama"},
  {"value":"la", "name":"Latine"},
  {"value":"lb", "name":"Lëtzebuergesch"},
  {"value":"lg", "name":"Luganda"},
  {"value":"li", "name":"Limburgs"},
  {"value":"ln", "name":"Lingála"},
  {"value":"lo", "name":"ພາສາລາວ"},
  {"value":"lt", "name":"lietuvių kalba"},
  {"value":"lv", "name":"latviešu valoda"},
  {"value":"gv", "name":"Gaelg"},
  {"value":"mk", "name":"македонски јазик"},
  {"value":"mg", "name":"Malagasy fiteny"},
  {"value":"ms", "name":"Bahasa Melayu‎"},
  {"value":"ml", "name":"Malayalamം"},
  {"value":"mt", "name":"Malti"},
  {"value":"mi", "name":"te reo Māori"},
  {"value":"mr", "name":"Marathi"},
  {"value":"mh", "name":"Kajin M̧ajeļ"},
  {"value":"mn", "name":"монгол"},
  {"value":"na", "name":"Ekakairũ Naoero"},
  {"value":"nv", "name":"Diné bizaad"},
  {"value":"nb", "name":"Norsk bokmål"},
  {"value":"nd", "name":"isiNdebele"},
  {"value":"ne", "name":"Nepali"},
  {"value":"ng", "name":"Owambo"},
  {"value":"nn", "name":"Norsk nynorsk"},
  {"value":"no", "name":"Norsk"},
  {"value":"ii", "name":"Nuosuhxop"},
  {"value":"nr", "name":"isiNdebele"},
  {"value":"oc", "name":"Occitan"},
  {"value":"oj", "name":"ᐊᓂᔑᓈᐯᒧᐎᓐ"},
  {"value":"cu", "name":"ѩзыкъ словѣньскъ"},
  {"value":"om", "name":"Afaan Oromoo"},
  {"value":"or", "name":"Oriya"},
  {"value":"os", "name":"ирон æвзаг"},
  {"value":"pa", "name":"Panjabi, پنجابی‎"},
  {"value":"pi", "name":"Pāli"},
  {"value":"fa", "name":"فارسی"},
  {"value":"pl", "name":"polski"},
  {"value":"ps", "name":"پښتو"},
  {"value":"pt", "name":"Português"},
  {"value":"qu", "name":"Runa Simi, Kichwa"},
  {"value":"rm", "name":"rumantsch grischun"},
  {"value":"rn", "name":"KiRundi"},
  {"value":"ro", "name":"Română"},
  {"value":"ru", "name":"русский язык"},
  {"value":"sa", "name":"Sanskrit्"},
  {"value":"sc", "name":"Sardu"},
  {"value":"sd", "name":"سنڌي، سندھی‎"},
  {"value":"se", "name":"Davvisámegiella"},
  {"value":"sm", "name":"gagana faa Samoa"},
  {"value":"sg", "name":"yângâ tî sängö"},
  {"value":"sr", "name":"српски језик"},
  {"value":"gd", "name":"Gàidhlig"},
  {"value":"sn", "name":"chiShona"},
  {"value":"si", "name":"Sinhala"},
  {"value":"sk", "name":"Slovenčina"},
  {"value":"sl", "name":"Slovenščina"},
  {"value":"so", "name":"Soomaaliga"},
  {"value":"st", "name":"Sesotho"},
  {"value":"es", "name":"Castellano"},
  {"value":"su", "name":"Basa Sunda"},
  {"value":"sw", "name":"Kiswahili"},
  {"value":"ss", "name":"SiSwati"},
  {"value":"sv", "name":"Svenska"},
  {"value":"ta", "name":"Tamil"},
  {"value":"te", "name":"Telugu"},
  {"value":"tg", "name":"тоҷикӣی‎"},
  {"value":"th", "name":"Thai"},
  {"value":"ti", "name":"Tigrinya"},
  {"value":"bo", "name":"Tibetan"},
  {"value":"tk", "name":"Türkmen"},
  {"value":"tl", "name":"Wikang Tagalog"},
  {"value":"tn", "name":"Setswana"},
  {"value":"to", "name":"faka Tonga"},
  {"value":"tr", "name":"Türkçe"},
  {"value":"ts", "name":"Xitsonga"},
  {"value":"tt", "name":"татарча‎"},
  {"value":"tw", "name":"Twi"},
  {"value":"ty", "name":"Reo Tahiti"},
  {"value":"ug", "name":"Uyƣurqə‎"},
  {"value":"uk", "name":"українська"},
  {"value":"ur", "name":"اردو"},
  {"value":"uz", "name":"zbek"},
  {"value":"ve", "name":"Tshivenḓa"},
  {"value":"vi", "name":"Tiếng Việt"},
  {"value":"vo", "name":"Volapük"},
  {"value":"wa", "name":"Walon"},
  {"value":"cy", "name":"Cymraeg"},
  {"value":"wo", "name":"Wollof"},
  {"value":"fy", "name":"Frysk"},
  {"value":"xh", "name":"isiXhosa"},
  {"value":"yi", "name":"ייִדיש"},
  {"value":"yo", "name":"Yorùbá"},
  {"value":"za", "name":"Saɯ cueŋƅ"}
]
